¡*

Pruebas para el proyecto final¡*

*¿
ent a;

funcion vacio main(){
	imprime '3';
}
funcion vacio sumaX(){
	ent b;
	b=233232;
	b=b+22;

}

funcion vacio parra(){
	ent n,k,w;
	w=21321;
	para(n=0; k=0;;n<10 yy noo n<100; n=n+1;k=n+2;){
		imprime n+k;
	}
	regresa;
}

funcion vacio para_casos(ent parametro){
	casos(parametro){
		caso: 1
			imprime "1111";
			detente;
		caso: 2
			imprime "2222";
			detente;
		predeterminado:
			imprime "Adios";
	}
	regresa;
}

funcion vacio mientras_2(){
	mientras(1>2){
		imprime 2;
	}
}