funcion ent main3 (ent aIOS){ 
	imprime 333/aIOS;
		regresa 3243+111/aIOS;
}

funcion ent main3_1 (){ 
		regresa 3243+111;
}

funcion ent main3_2 (ent var1,ent var2,ent var3,ent var4){ 
		regresa var2+var1+var3%var4;
}

¡*

Pruebas para el proyecto final¡*
*¿
funcion ent main (ent e1,ent e2){ 
	si(3>9){
		imprime "Hola, buenas noches";
	}sino{
		si(14>1)
			imprime "Hola, buenas tardes";
		sino
			imprime "PP";
	}
	
	regresa 11111*999999+5435345/56565%888-1;
}


funcion ent main2 (ent e24){ 
	regresa main3_1()+main3(33)/main3_2(66,3,6,7);
}


funcion ent main3333 (ent e2433){ 
	mientras(cierto){
		imprime "mientras break";
		detente;
	}
	regresa 0;
}


funcion ent main334343 (ent e243334){ 
	mientras(cierto){
		imprime "mientras";
	}
	regresa 0;
}

funcion ent mainf3 (ent e24sdfsdf){ 
	haz{
		imprime "haz mientras";
	}mientras(cierto);
	regresa 0;
}

funcion ent mai44nf3 (ent e24sdfsdf433){ 
	haz{
		imprime "haz mientras break";
		detente;
	}mientras(cierto);
	regresa 0;
}